CPU/cpu_tb.vcd
$date
	Wed Jan 29 01:16:10 2025
$end
$version
	Icarus Verilog
$end
$timescale
	100ps
$end
$scope module CPU_tb $end
$scope module cpu $end
$scope module regfile $end
$var reg 32 ! \REGISTER_FILE[0] [31:0] $end
$upscope $end
$upscope $end
$upscope $end
$scope module CPU_tb $end
$scope module cpu $end
$scope module regfile $end
$var reg 32 " \REGISTER_FILE[1] [31:0] $end
$upscope $end
$upscope $end
$upscope $end
$scope module CPU_tb $end
$scope module cpu $end
$scope module regfile $end
$var reg 32 # \REGISTER_FILE[2] [31:0] $end
$upscope $end
$upscope $end
$upscope $end
$scope module CPU_tb $end
$scope module cpu $end
$scope module regfile $end
$var reg 32 $ \REGISTER_FILE[3] [31:0] $end
$upscope $end
$upscope $end
$upscope $end
$scope module CPU_tb $end
$scope module cpu $end
$scope module regfile $end
$var reg 32 % \REGISTER_FILE[4] [31:0] $end
$upscope $end
$upscope $end
$upscope $end
$scope module CPU_tb $end
$scope module cpu $end
$scope module regfile $end
$var reg 32 & \REGISTER_FILE[5] [31:0] $end
$upscope $end
$upscope $end
$upscope $end
$scope module CPU_tb $end
$scope module cpu $end
$scope module regfile $end
$var reg 32 ' \REGISTER_FILE[6] [31:0] $end
$upscope $end
$upscope $end
$upscope $end
$scope module CPU_tb $end
$scope module cpu $end
$scope module regfile $end
$var reg 32 ( \REGISTER_FILE[7] [31:0] $end
$upscope $end
$upscope $end
$upscope $end
$scope module CPU_tb $end
$scope module cpu $end
$scope module regfile $end
$var reg 32 ) \REGISTER_FILE[8] [31:0] $end
$upscope $end
$upscope $end
$upscope $end
$scope module CPU_tb $end
$scope module cpu $end
$scope module regfile $end
$var reg 32 * \REGISTER_FILE[9] [31:0] $end
$upscope $end
$upscope $end
$upscope $end
$scope module CPU_tb $end
$scope module cpu $end
$scope module regfile $end
$var reg 32 + \REGISTER_FILE[10] [31:0] $end
$upscope $end
$upscope $end
$upscope $end
$scope module CPU_tb $end
$scope module cpu $end
$scope module regfile $end
$var reg 32 , \REGISTER_FILE[11] [31:0] $end
$upscope $end
$upscope $end
$upscope $end
$scope module CPU_tb $end
$scope module cpu $end
$scope module regfile $end
$var reg 32 - \REGISTER_FILE[12] [31:0] $end
$upscope $end
$upscope $end
$upscope $end
$scope module CPU_tb $end
$scope module cpu $end
$scope module regfile $end
$var reg 32 . \REGISTER_FILE[13] [31:0] $end
$upscope $end
$upscope $end
$upscope $end
$scope module CPU_tb $end
$scope module cpu $end
$scope module regfile $end
$var reg 32 / \REGISTER_FILE[14] [31:0] $end
$upscope $end
$upscope $end
$upscope $end
$scope module CPU_tb $end
$scope module cpu $end
$scope module regfile $end
$var reg 32 0 \REGISTER_FILE[15] [31:0] $end
$upscope $end
$upscope $end
$upscope $end
$scope module CPU_tb $end
$scope module cpu $end
$scope module regfile $end
$var reg 32 1 \REGISTER_FILE[16] [31:0] $end
$upscope $end
$upscope $end
$upscope $end
$scope module CPU_tb $end
$scope module cpu $end
$scope module regfile $end
$var reg 32 2 \REGISTER_FILE[17] [31:0] $end
$upscope $end
$upscope $end
$upscope $end
$scope module CPU_tb $end
$scope module cpu $end
$scope module regfile $end
$var reg 32 3 \REGISTER_FILE[18] [31:0] $end
$upscope $end
$upscope $end
$upscope $end
$scope module CPU_tb $end
$scope module cpu $end
$scope module regfile $end
$var reg 32 4 \REGISTER_FILE[19] [31:0] $end
$upscope $end
$upscope $end
$upscope $end
$scope module CPU_tb $end
$scope module cpu $end
$scope module regfile $end
$var reg 32 5 \REGISTER_FILE[20] [31:0] $end
$upscope $end
$upscope $end
$upscope $end
$scope module CPU_tb $end
$scope module cpu $end
$scope module regfile $end
$var reg 32 6 \REGISTER_FILE[21] [31:0] $end
$upscope $end
$upscope $end
$upscope $end
$scope module CPU_tb $end
$scope module cpu $end
$scope module regfile $end
$var reg 32 7 \REGISTER_FILE[22] [31:0] $end
$upscope $end
$upscope $end
$upscope $end
$scope module CPU_tb $end
$scope module cpu $end
$scope module regfile $end
$var reg 32 8 \REGISTER_FILE[23] [31:0] $end
$upscope $end
$upscope $end
$upscope $end
$scope module CPU_tb $end
$scope module cpu $end
$scope module regfile $end
$var reg 32 9 \REGISTER_FILE[24] [31:0] $end
$upscope $end
$upscope $end
$upscope $end
$scope module CPU_tb $end
$scope module cpu $end
$scope module regfile $end
$var reg 32 : \REGISTER_FILE[25] [31:0] $end
$upscope $end
$upscope $end
$upscope $end
$scope module CPU_tb $end
$scope module cpu $end
$scope module regfile $end
$var reg 32 ; \REGISTER_FILE[26] [31:0] $end
$upscope $end
$upscope $end
$upscope $end
$scope module CPU_tb $end
$scope module cpu $end
$scope module regfile $end
$var reg 32 < \REGISTER_FILE[27] [31:0] $end
$upscope $end
$upscope $end
$upscope $end
$scope module CPU_tb $end
$scope module cpu $end
$scope module regfile $end
$var reg 32 = \REGISTER_FILE[28] [31:0] $end
$upscope $end
$upscope $end
$upscope $end
$scope module CPU_tb $end
$scope module cpu $end
$scope module regfile $end
$var reg 32 > \REGISTER_FILE[29] [31:0] $end
$upscope $end
$upscope $end
$upscope $end
$scope module CPU_tb $end
$scope module cpu $end
$scope module regfile $end
$var reg 32 ? \REGISTER_FILE[30] [31:0] $end
$upscope $end
$upscope $end
$upscope $end
$scope module CPU_tb $end
$scope module cpu $end
$scope module regfile $end
$var reg 32 @ \REGISTER_FILE[31] [31:0] $end
$upscope $end
$upscope $end
$upscope $end
$scope module CPU_tb $end
$var wire 32 A MEM_WRITE_DATA [31:0] $end
$var wire 1 B MEM_WRITE $end
$var wire 1 C MEM_READ $end
$var wire 32 D MEM_ADDRESS [31:0] $end
$var reg 1 E BUSYWAIT $end
$var reg 1 F CLK $end
$var reg 32 G INSTRUCTION [31:0] $end
$var reg 32 H PC [31:0] $end
$var reg 32 I READ_DATA [31:0] $end
$var reg 1 J RESET $end
$scope module cpu $end
$var wire 1 E BUSYWAIT $end
$var wire 1 F CLK $end
$var wire 32 K INSTRUCTION [31:0] $end
$var wire 32 L PC [31:0] $end
$var wire 32 M READ_DATA [31:0] $end
$var wire 1 J RESET $end
$var wire 32 N extended_imm_value_out [31:0] $end
$var wire 32 O extended_imm_value [31:0] $end
$var wire 1 P WRITE_ENABLE $end
$var wire 32 Q WRITE_DATA [31:0] $end
$var wire 5 R WB_ADDRESS [4:0] $end
$var wire 1 S TWOSCOMP_OUT $end
$var wire 1 T TWOSCOMP $end
$var wire 1 U REGWRITE_ENABLE_OUT2 $end
$var wire 1 V REGWRITE_ENABLE_OUT $end
$var wire 1 W REGWRITE_ENABLE $end
$var wire 32 X READ_DATA_OUT [31:0] $end
$var wire 5 Y RD_OUT2 [4:0] $end
$var wire 5 Z RD_OUT [4:0] $end
$var wire 32 [ PC_PLUS_FOUR_OUT2 [31:0] $end
$var wire 32 \ PC_PLUS_FOUR_OUT [31:0] $end
$var wire 32 ] PC_PLUS_FOUR [31:0] $end
$var wire 32 ^ PC_OUT2 [31:0] $end
$var wire 32 _ PC_OUT [31:0] $end
$var wire 32 ` OUT2_TWOSCOMP [31:0] $end
$var wire 32 a OUT2 [31:0] $end
$var wire 32 b OUT1 [31:0] $end
$var wire 1 c MUX3_SELECT_OUT3 $end
$var wire 1 d MUX3_SELECT_OUT2 $end
$var wire 1 e MUX3_SELECT_OUT $end
$var wire 1 f MUX3_SELECT $end
$var wire 1 g MUX2_SELECT_OUT $end
$var wire 1 h MUX2_SELECT $end
$var wire 1 i MUX1_SELECT_OUT $end
$var wire 1 j MUX1_SELECT $end
$var wire 32 k MEM_WRITE_DATA [31:0] $end
$var wire 1 B MEM_WRITE $end
$var wire 1 C MEM_READ $end
$var wire 1 l MEMWRITE_OUT $end
$var wire 1 m MEMWRITE $end
$var wire 1 n MEMREAD_OUT $end
$var wire 1 o MEMREAD $end
$var wire 1 p JUMP_OUT $end
$var wire 1 q JUMP $end
$var wire 32 r JAL_RESULT3 [31:0] $end
$var wire 32 s JAL_RESULT2 [31:0] $end
$var wire 32 t JAL_RESULT [31:0] $end
$var wire 1 u JAL_OUT $end
$var wire 1 v JAL $end
$var wire 32 w INSTRUCTION_OUT [31:0] $end
$var wire 3 x IMMEDIATE [2:0] $end
$var wire 3 y FUNC3_OUT2 [2:0] $end
$var wire 3 z FUNC3_OUT [2:0] $end
$var wire 32 { DATA2_OUT [31:0] $end
$var wire 32 | DATA2 [31:0] $end
$var wire 32 } DATA1_OUT [31:0] $end
$var wire 32 ~ DATA1 [31:0] $end
$var wire 1 !" BRANCH_OUT $end
$var wire 1 "" BRANCH $end
$var wire 1 #" ALU_ZERO $end
$var wire 32 $" ALU_RESULT [31:0] $end
$var wire 5 %" ALUOP_OUT [4:0] $end
$var wire 5 &" ALUOP [4:0] $end
$var reg 32 '" MEM_ADDRESS [31:0] $end
$scope module EX_MEMREG $end
$var wire 1 E BUSYWAIT $end
$var wire 1 F CLK $end
$var wire 1 J RESET $end
$var wire 1 V REGWRITE_ENABLE_IN $end
$var wire 5 (" RD_IN [4:0] $end
$var wire 1 e MUX3_SELECT_IN $end
$var wire 1 l MEM_WRITE_IN $end
$var wire 1 n MEM_READ_IN $end
$var wire 3 )" FUNC3_IN [2:0] $end
$var wire 32 *" DATA2_IN [31:0] $end
$var wire 32 +" ALUUD_IN [31:0] $end
$var reg 32 ," ALUUD_OUT [31:0] $end
$var reg 32 -" DATA2_OUT [31:0] $end
$var reg 3 ." FUNC3_OUT [2:0] $end
$var reg 1 C MEM_READ_OUT $end
$var reg 1 B MEM_WRITE_OUT $end
$var reg 1 d MUX3_SELECT_OUT $end
$var reg 5 /" RD_OUT [4:0] $end
$var reg 1 U REGWRITE_ENABLE_OUT $end
$upscope $end
$scope module ID_EXREG $end
$var wire 1 E BUSYWAIT $end
$var wire 1 F CLK $end
$var wire 3 0" FUNC3_IN [2:0] $end
$var wire 5 1" RD_IN [4:0] $end
$var wire 1 J RESET $end
$var wire 1 T TWOSCOMP_IN $end
$var wire 1 W REGWRITE_IN $end
$var wire 32 2" PC_PLUS_FOUR_IN [31:0] $end
$var wire 32 3" PC_IN [31:0] $end
$var wire 1 f MUX3_IN $end
$var wire 1 h MUX2_IN $end
$var wire 1 j MUX1_IN $end
$var wire 1 m MEMWRITE_IN $end
$var wire 1 o MEMREAD_IN $end
$var wire 1 q JUMP_IN $end
$var wire 1 v JAL_IN $end
$var wire 32 4" IMM_IN [31:0] $end
$var wire 32 5" DATA2_IN [31:0] $end
$var wire 32 6" DATA1_IN [31:0] $end
$var wire 1 "" BRANCH_IN $end
$var wire 5 7" ALU_IN [4:0] $end
$var reg 5 8" ALU_OUT [4:0] $end
$var reg 1 !" BRANCH_OUT $end
$var reg 32 9" DATA1_OUT [31:0] $end
$var reg 32 :" DATA2_OUT [31:0] $end
$var reg 3 ;" FUNC3_OUT [2:0] $end
$var reg 32 <" IMM_OUT [31:0] $end
$var reg 1 u JAL_OUT $end
$var reg 1 p JUMP_OUT $end
$var reg 1 n MEMREAD_OUT $end
$var reg 1 l MEMWRITE_OUT $end
$var reg 1 i MUX1_OUT $end
$var reg 1 g MUX2_OUT $end
$var reg 1 e MUX3_OUT $end
$var reg 32 =" PC_OUT [31:0] $end
$var reg 32 >" PC_PLUS_FOUR_OUT [31:0] $end
$var reg 5 ?" RD_OUT [4:0] $end
$var reg 1 V REGWRITE_OUT $end
$var reg 1 S TWOSCOMP_OUT $end
$upscope $end
$scope module IF_IDREG $end
$var wire 1 E BUSYWAIT $end
$var wire 1 F CLK $end
$var wire 32 @" INSTRUCTION_IN [31:0] $end
$var wire 32 A" PC_IN [31:0] $end
$var wire 1 J RESET $end
$var wire 32 B" PC_PLUS_FOUR_IN [31:0] $end
$var reg 32 C" INSTRUCTION_OUT [31:0] $end
$var reg 32 D" PC_OUT [31:0] $end
$var reg 32 E" PC_PLUS_FOUR_OUT [31:0] $end
$upscope $end
$scope module JAL_MUX $end
$var wire 32 F" IN1 [31:0] $end
$var wire 1 u SELECT $end
$var wire 32 G" IN0 [31:0] $end
$var reg 32 H" OUT [31:0] $end
$upscope $end
$scope module MEM_WBREG $end
$var wire 32 I" ALUOUT_IN [31:0] $end
$var wire 1 E BUSYWAIT $end
$var wire 1 F CLK $end
$var wire 32 J" MEM_IN [31:0] $end
$var wire 1 d MUX3_SELECT_IN $end
$var wire 5 K" RD_IN [4:0] $end
$var wire 1 U REGWRITE_ENABLE_IN $end
$var wire 1 J RESET $end
$var reg 32 L" ALUOUT_OUT [31:0] $end
$var reg 32 M" MEM_OUT [31:0] $end
$var reg 1 c MUX3_SELECT_OUT $end
$var reg 5 N" RD_OUT [4:0] $end
$var reg 1 P REGWRITE_ENABLE_OUT $end
$upscope $end
$scope module MUX3 $end
$var wire 32 O" IN0 [31:0] $end
$var wire 32 P" IN1 [31:0] $end
$var wire 1 c SELECT $end
$var reg 32 Q" OUT [31:0] $end
$upscope $end
$scope module adder $end
$var wire 32 R" IN1 [31:0] $end
$var wire 32 S" OUT [31:0] $end
$upscope $end
$scope module alu $end
$var wire 5 T" SELECT [4:0] $end
$var wire 32 U" Result_xor [31:0] $end
$var wire 32 V" Result_srl [31:0] $end
$var wire 32 W" Result_sltu [31:0] $end
$var wire 32 X" Result_slt [31:0] $end
$var wire 32 Y" Result_sll [31:0] $end
$var wire 32 Z" Result_remu [31:0] $end
$var wire 32 [" Result_rem [31:0] $end
$var wire 32 \" Result_or [31:0] $end
$var wire 32 ]" Result_mulhu [31:0] $end
$var wire 32 ^" Result_mulhsu [31:0] $end
$var wire 32 _" Result_mulh [31:0] $end
$var wire 32 `" Result_mul [31:0] $end
$var wire 32 a" Result_div [31:0] $end
$var wire 32 b" Result_and [31:0] $end
$var wire 32 c" Result_add [31:0] $end
$var wire 32 d" DATA2 [31:0] $end
$var wire 32 e" DATA1 [31:0] $end
$var reg 32 f" RESULT [31:0] $end
$var reg 1 #" ZERO $end
$scope module add0 $end
$var wire 32 g" result [31:0] $end
$var wire 32 h" operand_B [31:0] $end
$var wire 32 i" operand_A [31:0] $end
$upscope $end
$scope module and0 $end
$var wire 32 j" result [31:0] $end
$var wire 32 k" operand_B [31:0] $end
$var wire 32 l" operand_A [31:0] $end
$upscope $end
$scope module div0 $end
$var wire 32 m" result [31:0] $end
$var wire 32 n" operand_B [31:0] $end
$var wire 32 o" operand_A [31:0] $end
$upscope $end
$scope module mul0 $end
$var wire 32 p" result [31:0] $end
$var wire 64 q" product [63:0] $end
$var wire 32 r" operand_B [31:0] $end
$var wire 32 s" operand_A [31:0] $end
$upscope $end
$scope module mulh0 $end
$var wire 32 t" result [31:0] $end
$var wire 64 u" product [63:0] $end
$var wire 32 v" operand_B [31:0] $end
$var wire 32 w" operand_A [31:0] $end
$upscope $end
$scope module mulhsu0 $end
$var wire 32 x" result [31:0] $end
$var wire 64 y" product [63:0] $end
$var wire 32 z" operand_B [31:0] $end
$var wire 32 {" operand_A [31:0] $end
$upscope $end
$scope module mulhu0 $end
$var wire 32 |" result [31:0] $end
$var wire 64 }" product [63:0] $end
$var wire 32 ~" operand_B [31:0] $end
$var wire 32 !# operand_A [31:0] $end
$upscope $end
$scope module or0 $end
$var wire 32 "# result [31:0] $end
$var wire 32 ## operand_B [31:0] $end
$var wire 32 $# operand_A [31:0] $end
$upscope $end
$scope module rem0 $end
$var wire 32 %# result [31:0] $end
$var wire 32 &# operand_B [31:0] $end
$var wire 32 '# operand_A [31:0] $end
$upscope $end
$scope module remu0 $end
$var wire 32 (# result [31:0] $end
$var wire 32 )# operand_B [31:0] $end
$var wire 32 *# operand_A [31:0] $end
$upscope $end
$scope module sll0 $end
$var wire 32 +# result [31:0] $end
$var wire 32 ,# operand_B [31:0] $end
$var wire 32 -# operand_A [31:0] $end
$upscope $end
$scope module slt0 $end
$var wire 32 .# result [31:0] $end
$var wire 32 /# operand_B [31:0] $end
$var wire 32 0# operand_A [31:0] $end
$upscope $end
$scope module sltu0 $end
$var wire 32 1# result [31:0] $end
$var wire 32 2# operand_B [31:0] $end
$var wire 32 3# operand_A [31:0] $end
$upscope $end
$scope module srl0 $end
$var wire 32 4# result [31:0] $end
$var wire 32 5# operand_B [31:0] $end
$var wire 32 6# operand_A [31:0] $end
$upscope $end
$scope module xor0 $end
$var wire 32 7# result [31:0] $end
$var wire 32 8# operand_B [31:0] $end
$var wire 32 9# operand_A [31:0] $end
$upscope $end
$upscope $end
$scope module cu $end
$var wire 32 :# INSTRUCTION [31:0] $end
$var reg 5 ;# ALUOP [4:0] $end
$var reg 1 "" BRANCH $end
$var reg 3 <# FUNCT3 [2:0] $end
$var reg 7 =# FUNCT7 [6:0] $end
$var reg 3 ># IMMEDIATE [2:0] $end
$var reg 1 v JAL $end
$var reg 1 q JUMP $end
$var reg 1 o MEMORYREAD $end
$var reg 1 m MEMORYWRITE $end
$var reg 1 j MUX1 $end
$var reg 1 h MUX2 $end
$var reg 1 f MUX3 $end
$var reg 8 ?# OPCODE [7:0] $end
$var reg 1 W REGISTERWRITE $end
$var reg 1 T TWOSCOMP $end
$upscope $end
$scope module immex $end
$var wire 3 @# imm_select [2:0] $end
$var wire 32 A# imm_value [31:0] $end
$var wire 20 B# U_imm [19:0] $end
$var wire 5 C# S_imm_2 [4:0] $end
$var wire 7 D# S_imm_1 [6:0] $end
$var wire 10 E# J_imm_4 [9:0] $end
$var wire 1 F# J_imm_3 $end
$var wire 8 G# J_imm_2 [7:0] $end
$var wire 1 H# J_imm_1 $end
$var wire 12 I# I_imm [11:0] $end
$var wire 4 J# B_imm_4 [3:0] $end
$var wire 6 K# B_imm_3 [5:0] $end
$var wire 1 L# B_imm_2 $end
$var wire 1 M# B_imm_1 $end
$var reg 32 N# extended_imm_value [31:0] $end
$upscope $end
$scope module mux1 $end
$var wire 32 O# IN0 [31:0] $end
$var wire 32 P# IN1 [31:0] $end
$var wire 1 i SELECT $end
$var reg 32 Q# OUT [31:0] $end
$upscope $end
$scope module mux2 $end
$var wire 32 R# IN0 [31:0] $end
$var wire 32 S# IN1 [31:0] $end
$var wire 1 g SELECT $end
$var reg 32 T# OUT [31:0] $end
$upscope $end
$scope module regfile $end
$var wire 5 U# ADRS1 [4:0] $end
$var wire 5 V# ADRS2 [4:0] $end
$var wire 1 F CLK $end
$var wire 32 W# DATA_OUT1 [31:0] $end
$var wire 32 X# DATA_OUT2 [31:0] $end
$var wire 1 J RESET $end
$var wire 5 Y# WB_ADDRESS [4:0] $end
$var wire 32 Z# WRITE_DATA [31:0] $end
$var wire 1 P WRITE_ENABLE $end
$var reg 32 [# DATA1 [31:0] $end
$var reg 32 \# DATA2 [31:0] $end
$var integer 32 ]# i [31:0] $end
$upscope $end
$scope module twos_complement $end
$var wire 32 ^# DATA2 [31:0] $end
$var wire 1 S select $end
$var reg 32 _# DATA2_OUT [31:0] $end
$upscope $end
$upscope $end
$upscope $end
$enddefinitions $end
#0
$dumpvars
bx _#
bx ^#
b100000 ]#
bx \#
bx [#
bx Z#
bx Y#
bx X#
bx W#
bx V#
bx U#
bx T#
b0 S#
bx R#
b0 Q#
b0 P#
b0 O#
bx N#
xM#
xL#
bx K#
bx J#
bx I#
xH#
bx G#
xF#
bx E#
bx D#
bx C#
bx B#
bx A#
bx @#
bx ?#
bx >#
bx =#
bx <#
bx ;#
bx :#
b0 9#
bx 8#
bx 7#
b0 6#
bx 5#
bx 4#
b0 3#
bx 2#
bx 1#
b0 0#
bx /#
bx .#
b0 -#
bx ,#
bx +#
b0 *#
bx )#
bx (#
b0 '#
bx &#
bx %#
b0 $#
bx ##
bx "#
b0 !#
bx ~"
bx }"
bx |"
b0 {"
bx z"
bx y"
bx x"
b0 w"
bx v"
bx u"
bx t"
b0 s"
bx r"
bx q"
bx p"
b0 o"
bx n"
bx m"
b0 l"
bx k"
bx j"
b0 i"
bx h"
bx g"
bx f"
b0 e"
bx d"
bx c"
bx b"
bx a"
bx `"
bx _"
bx ^"
bx ]"
bx \"
bx ["
bx Z"
bx Y"
bx X"
bx W"
bx V"
bx U"
b0 T"
bx S"
b0 R"
bx Q"
bx P"
bx O"
bx N"
bx M"
bx L"
bx K"
b0 J"
bx I"
bx H"
bx G"
b0 F"
bx E"
bx D"
bx C"
bx B"
b0 A"
b0 @"
b0 ?"
b0 >"
b0 ="
b0 <"
b0 ;"
b0 :"
b0 9"
b0 8"
bx 7"
bx 6"
bx 5"
bx 4"
bx 3"
bx 2"
bx 1"
bx 0"
bx /"
bx ."
bx -"
bx ,"
bx +"
b0 *"
b0 )"
b0 ("
bx '"
bx &"
b0 %"
bx $"
x#"
x""
0!"
bx ~
b0 }
bx |
b0 {
b0 z
bx y
bx x
bx w
xv
0u
bx t
bx s
bx r
xq
0p
xo
0n
xm
0l
bx k
xj
0i
xh
0g
xf
0e
xd
xc
b0 b
bx a
bx `
bx _
b0 ^
bx ]
bx \
b0 [
b0 Z
bx Y
bx X
xW
0V
xU
xT
0S
bx R
bx Q
xP
bx O
b0 N
b0 M
b0 L
b0 K
1J
b0 I
b0 H
b0 G
0F
0E
bx D
xC
xB
bx A
bx @
bx ?
bx >
bx =
bx <
bx ;
bx :
bx 9
bx 8
bx 7
bx 6
bx 5
bx 4
bx 3
bx 2
bx 1
bx 0
bx /
bx .
bx -
bx ,
bx +
bx *
bx )
bx (
bx '
bx &
bx %
bx $
bx #
bx "
bx !
$end
#10
b100 ]
b100 B"
b100 S"
#20
b0 b"
b0 j"
b0x W"
b0x 1#
b0x X"
b0x .#
#50
b0 |
b0 5"
b0 X#
b0 \#
b0 ~
b0 6"
b0 W#
b0 [#
b11111 @
b11110 ?
b11101 >
b11100 =
b11011 <
b11010 ;
b11001 :
b11000 9
b10111 8
b10110 7
b10101 6
b10100 5
b10011 4
b10010 3
b10001 2
b10000 1
b1111 0
b1110 /
b1101 .
b1100 -
b1011 ,
b1010 +
b1001 *
b1000 )
b111 (
b110 '
b101 &
b100 %
b11 $
b10 #
b1 "
b0 !
b0 `
b0 d"
b0 h"
b0 k"
b0 n"
b0 r"
b0 v"
b0 z"
b0 ~"
b0 ##
b0 &#
b0 )#
b0 ,#
b0 /#
b0 2#
b0 5#
b0 8#
b0 _#
b0 a
b0 T#
b0 ^#
b0 O
b0 4"
b0 N#
b0 R#
b0 =#
b0 <#
b0 ?#
b0 B#
b0 I#
b0 D#
b0 C#
0M#
0L#
b0 K#
b0 J#
0H#
b0 G#
0F#
b0 E#
b0 1"
b0 0"
b0 V#
b0 U#
b0 D
b0 '"
b0 Q
b0 Q"
b0 Z#
b0 w
b0 C"
b0 :#
b0 A#
b0 \
b0 2"
b0 E"
b0 _
b0 3"
b0 D"
b100000 ]#
b0 Y
b0 /"
b0 K"
b0 y
b0 ."
b0 A
b0 k
b0 -"
b0 s
b0 ,"
b0 I"
0U
0d
0C
b0 R
b0 N"
b0 Y#
b0 X
b0 M"
b0 P"
b0 r
b0 L"
b0 O"
0P
0c
1F
#70
b0 t
b0 +"
b0 H"
b0 ]"
b0 |"
b0 ^"
b0 x"
b0 _"
b0 t"
b0 `"
b0 p"
1#"
b0 $"
b0 G"
b0 f"
b0 U"
b0 7#
b0 W"
b0 1#
b0 X"
b0 .#
b0 \"
b0 "#
b0 V"
b0 4#
b0 Y"
b0 +#
b0 }"
b0 y"
b0 u"
b0 q"
b0 c"
b0 g"
#100
0F
0J
#150
1F
#170
0B
xS
xu
xp
x!"
xn
xl
xV
xe
xg
xi
bx %"
bx 8"
bx T"
b100 \
b100 2"
b100 E"
#200
0F
b1100010000000010110011 G
b1100010000000010110011 K
b1100010000000010110011 @"
b100 H
b100 L
b100 A"
b100 R"
#210
b1000 ]
b1000 B"
b1000 S"
#250
1F
#270
b1100010000000000000000 `
b1100010000000000000000 d"
b1100010000000000000000 h"
b1100010000000000000000 k"
b1100010000000000000000 n"
b1100010000000000000000 r"
b1100010000000000000000 v"
b1100010000000000000000 z"
b1100010000000000000000 ~"
b1100010000000000000000 ##
b1100010000000000000000 &#
b1100010000000000000000 )#
b1100010000000000000000 ,#
b1100010000000000000000 /#
b1100010000000000000000 2#
b1100010000000000000000 5#
b1100010000000000000000 8#
b1100010000000000000000 _#
b1100010000000000000000 a
b1100010000000000000000 T#
b1100010000000000000000 ^#
b1100010000000000000000 O
b1100010000000000000000 4"
b1100010000000000000000 N#
b1100010000000000000000 R#
b11 |
b11 5"
b11 X#
b11 \#
b10 ~
b10 6"
b10 W#
b10 [#
0T
b0 x
b0 >#
b0 @#
0v
0q
0""
0o
0m
1W
0f
1h
1j
b0 &"
b0 7"
b0 ;#
b110011 ?#
b1100010000 B#
b11 I#
b1 C#
1L#
b10000 G#
1F#
b1 E#
b1 1"
b11 V#
b10 U#
b100 _
b100 3"
b100 D"
b1000 \
b1000 2"
b1000 E"
b1100010000000010110011 w
b1100010000000010110011 C"
b1100010000000010110011 :#
b1100010000000010110011 A#
b100 [
b100 >"
b100 F"
xU
xd
xB
xC
#290
b1100010000000000000000 U"
b1100010000000000000000 7#
b1 W"
b1 1#
b1 X"
b1 .#
b1100010000000000000000 \"
b1100010000000000000000 "#
b0 Z"
b0 (#
b0 ["
b0 %#
b0 a"
b0 m"
b1100010000000000000000 c"
b1100010000000000000000 g"
#300
0F
b1000000010101100000000010110011 G
b1000000010101100000000010110011 K
b1000000010101100000000010110011 @"
b1000 H
b1000 L
b1000 A"
b1000 R"
#310
b1100 ]
b1100 B"
b1100 S"
#350
1F
#370
b1100010000000000000000 t
b1100010000000000000000 +"
b1100010000000000000000 H"
b1000000010101100000000000000000 O
b1000000010101100000000000000000 4"
b1000000010101100000000000000000 N#
b1000000010101100000000000000000 R#
b101 |
b101 5"
b101 X#
b101 \#
b1100 ~
b1100 6"
b1100 W#
b1100 [#
b11 `
b11 d"
b11 h"
b11 k"
b11 n"
b11 r"
b11 v"
b11 z"
b11 ~"
b11 ##
b11 &#
b11 )#
b11 ,#
b11 /#
b11 2#
b11 5#
b11 8#
b11 _#
b1100010000000000000000 $"
b1100010000000000000000 G"
b1100010000000000000000 f"
b11 a
b11 T#
b11 ^#
b10 b
b10 e"
b10 i"
b10 l"
b10 o"
b10 s"
b10 w"
b10 {"
b10 !#
b10 $#
b10 '#
b10 *#
b10 -#
b10 0#
b10 3#
b10 6#
b10 9#
b10 Q#
1T
b100000 =#
b1000000010101100000 B#
b10000000101 I#
b100000 D#
b100000 K#
b1100000 G#
b1000000010 E#
b101 V#
b1100 U#
xP
xc
0S
0u
0p
0!"
0n
0l
1V
0e
1g
1i
b0 %"
b0 8"
b0 T"
b1 Z
b1 ("
b1 ?"
b11 {
b11 *"
b11 :"
b11 S#
b10 }
b10 9"
b10 P#
b100 ^
b100 ="
b100 O#
b1000 [
b1000 >"
b1000 F"
b1100010000000000000000 N
b1100010000000000000000 <"
b1000 _
b1000 3"
b1000 D"
b1100 \
b1100 2"
b1100 E"
b1000000010101100000000010110011 w
b1000000010101100000000010110011 C"
b1000000010101100000000010110011 :#
b1000000010101100000000010110011 A#
#390
b101 t
b101 +"
b101 H"
b110 `"
b110 p"
b101 $"
b101 G"
b101 f"
b1 U"
b1 7#
b11 \"
b11 "#
b10 b"
b10 j"
b10000 Y"
b10000 +#
b10 Z"
b10 (#
b10 ["
b10 %#
b110 }"
b110 y"
b110 u"
b110 q"
b101 c"
b101 g"
#400
0F
b11000101110001000110011 G
b11000101110001000110011 K
b11000101110001000110011 @"
b1100 H
b1100 L
b1100 A"
b1100 R"
#410
b10000 ]
b10000 B"
b10000 S"
#450
1F
#470
b11000101110000000000000 O
b11000101110000000000000 4"
b11000101110000000000000 N#
b11000101110000000000000 R#
b110 |
b110 5"
b110 X#
b110 \#
b101 ~
b101 6"
b101 W#
b101 [#
0T
b110 &"
b110 7"
b110 ;#
b0 =#
b110 <#
b11000101110 B#
b110 I#
b0 D#
b100 C#
0L#
b0 K#
b10 J#
b101110 G#
0F#
b11 E#
b100 1"
b110 0"
b110 V#
b101 U#
b11111111111111111111111111111011 `
b11111111111111111111111111111011 d"
b11111111111111111111111111111011 h"
b11111111111111111111111111111011 k"
b11111111111111111111111111111011 n"
b11111111111111111111111111111011 r"
b11111111111111111111111111111011 v"
b11111111111111111111111111111011 z"
b11111111111111111111111111111011 ~"
b11111111111111111111111111111011 ##
b11111111111111111111111111111011 &#
b11111111111111111111111111111011 )#
b11111111111111111111111111111011 ,#
b11111111111111111111111111111011 /#
b11111111111111111111111111111011 2#
b11111111111111111111111111111011 5#
b11111111111111111111111111111011 8#
b11111111111111111111111111111011 _#
b101 a
b101 T#
b101 ^#
b1100 b
b1100 e"
b1100 i"
b1100 l"
b1100 o"
b1100 s"
b1100 w"
b1100 {"
b1100 !#
b1100 $#
b1100 '#
b1100 *#
b1100 -#
b1100 0#
b1100 3#
b1100 6#
b1100 9#
b1100 Q#
b101 D
b101 '"
b1100 _
b1100 3"
b1100 D"
b10000 \
b10000 2"
b10000 E"
b11000101110001000110011 w
b11000101110001000110011 C"
b11000101110001000110011 :#
b11000101110001000110011 A#
1S
b101 {
b101 *"
b101 :"
b101 S#
b1100 }
b1100 9"
b1100 P#
b1000 ^
b1000 ="
b1000 O#
b1100 [
b1100 >"
b1100 F"
b1000000010101100000000000000000 N
b1000000010101100000000000000000 <"
b1 Y
b1 /"
b1 K"
b11 A
b11 k
b11 -"
b101 s
b101 ,"
b101 I"
1U
0d
0B
0C
